…
## Data pre-processing
Load data and check content.   

```r
dat = read.csv2("data/Alnus_madresvs brinzales.csv")
#dat = read.csv2("data/Alnus_madres vs brinzales_2x_3x_4x_homocigotos completos.csv")
dat %>% tibble()
```

```
## # A tibble: 276 × 67
##    SAMPLE POPULATION Ploidía  AG01     X   X.1   X.2  AG05   X.3   X.4   X.5
##    <chr>  <chr>      <chr>   <int> <int> <int> <int> <int> <int> <int> <int>
##  1 T-481  Madres     2x        134   146    NA    NA   148   159    NA    NA
##  2 T-482  Madres     4x        132    NA    NA    NA   141   155   157    NA
##  3 T-483  Madres     4x        132    NA    NA    NA   141   146   157    NA
##  4 T-484  Madres     4x        132    NA    NA    NA   146   151   155    NA
##  5 T-485  Madres     4x        132    NA    NA    NA   141   146    NA    NA
##  6 T-486  Madres     4x        132   134    NA    NA   141   155    NA    NA
##  7 T-487  Madres     4x        128   132   166    NA   141   148   155    NA
##  8 T-488  Madres     4x        132    NA    NA    NA   141   148   155    NA
##  9 T-489  Madres     2x        134   135    NA    NA   151   159    NA    NA
## 10 T-490  Madres     4x        126   132    NA    NA   148   155   171    NA
## # ℹ 266 more rows
## # ℹ 56 more variables: AG09 <int>, X.6 <int>, X.7 <int>, X.8 <int>, AG10 <int>,
## #   X.9 <int>, X.10 <int>, X.11 <lgl>, AG13 <int>, X.12 <int>, X.13 <int>,
## #   X.14 <int>, AG23 <int>, X.15 <int>, X.16 <int>, X.17 <lgl>, AG25 <int>,
## #   X.18 <int>, X.19 <int>, X.20 <int>, AG27 <int>, X.21 <int>, X.22 <int>,
## #   X.23 <lgl>, AG30 <int>, X.24 <int>, X.25 <int>, X.26 <int>, AG35 <int>,
## #   X.27 <int>, X.28 <int>, X.29 <int>, A2 <int>, X.30 <int>, X.31 <lgl>, …
```
…
# Keep those col names for later use (in the proper format) 
cols_recover = str_to_lower(names(dat)[1:n_col_remove])
cols_recover = stringi::stri_trans_general(cols_recover, "Latin-ASCII")

# Remove the specified number of columns from the start of the data frame
dat_pr <- dat[, -(1:n_col_remove)]

# Show the result
dat_pr %>% tibble()
```

```
## # A tibble: 276 × 64
##     AG01     X   X.1   X.2  AG05   X.3   X.4   X.5  AG09   X.6   X.7   X.8  AG10
##    <int> <int> <int> <int> <int> <int> <int> <int> <int> <int> <int> <int> <int>
##  1   134   146    NA    NA   148   159    NA    NA   250   254    NA    NA   216
##  2   132    NA    NA    NA   141   155   157    NA   246   248   250    NA   218
##  3   132    NA    NA    NA   141   146   157    NA   244   246   248    NA   218
##  4   132    NA    NA    NA   146   151   155    NA   244   248   250   256   216
##  5   132    NA    NA    NA   141   146    NA    NA   246    NA    NA    NA   218
##  6   132   134    NA    NA   141   155    NA    NA   244   246   262    NA   216
##  7   128   132   166    NA   141   148   155    NA   244   246   250    NA   218
##  8   132    NA    NA    NA   141   148   155    NA   246   248    NA    NA   216
##  9   134   135    NA    NA   151   159    NA    NA   250   250    NA    NA   216
## 10   126   132    NA    NA   148   155   171    NA   246    NA    NA    NA   218
## # ℹ 266 more rows
## # ℹ 51 more variables: X.9 <int>, X.10 <int>, X.11 <lgl>, AG13 <int>,
## #   X.12 <int>, X.13 <int>, X.14 <int>, AG23 <int>, X.15 <int>, X.16 <int>,
## #   X.17 <lgl>, AG25 <int>, X.18 <int>, X.19 <int>, X.20 <int>, AG27 <int>,
## #   X.21 <int>, X.22 <int>, X.23 <lgl>, AG30 <int>, X.24 <int>, X.25 <int>,
## #   X.26 <int>, AG35 <int>, X.27 <int>, X.28 <int>, X.29 <int>, A2 <int>,
## #   X.30 <int>, X.31 <lgl>, X.32 <lgl>, A22 <int>, X.33 <int>, X.34 <int>, …
```
…
```r
# Recover original marker names 
names(mydat) = markers

mydat %>% as_tibble()
```

```
## # A tibble: 1,104 × 16
##     AG01  AG05  AG09  AG10  AG13  AG23  AG25  AG27  AG30  AG35    A2   A22   A35
##    <int> <int> <int> <int> <int> <int> <int> <int> <int> <int> <int> <int> <int>
##  1   134   148   250   216   251   356    93   101    99   196   142   161   228
##  2   146   159   254   218   268   360    93   101   107   202    NA    NA    NA
##  3    NA    NA    NA    NA    NA    NA    NA    NA    NA    NA    NA    NA    NA
##  4    NA    NA    NA    NA    NA    NA    NA    NA    NA    NA    NA    NA    NA
##  5   132   141   246   218   251   356    93   101    97   184   142   159   224
##  6    NA   155   248    NA   266    NA   105   103    99   200    NA   163   228
##  7    NA   157   250    NA   270    NA    NA   105   103    NA    NA   167   230
##  8    NA    NA    NA    NA   272    NA    NA    NA    NA    NA    NA   169    NA
##  9   132   141   244   218   262   356    93   101    97   181   142   159   224
## 10    NA   146   246    NA   266   358    99   103    99   186    NA   163   226
## # ℹ 1,094 more rows
## # ℹ 3 more variables: A37 <int>, A38 <int>, AG20 <int>
```
…
```r
new_cols <- purrr::imap_dfc(cols_recover, function(colname, i) {
  # i es el índice de la columna en dat
  tibble(!!colname := rep(dat[[i]], each = 4))
})

# Combinamos con mydat
mydat <- bind_cols(new_cols, mydat)

mydat %>% tibble()
```

```
## # A tibble: 1,104 × 19
##    sample population ploidia  AG01  AG05  AG09  AG10  AG13  AG23  AG25  AG27
##    <chr>  <chr>      <chr>   <int> <int> <int> <int> <int> <int> <int> <int>
##  1 T-481  Madres     2x        134   148   250   216   251   356    93   101
##  2 T-481  Madres     2x        146   159   254   218   268   360    93   101
##  3 T-481  Madres     2x         NA    NA    NA    NA    NA    NA    NA    NA
##  4 T-481  Madres     2x         NA    NA    NA    NA    NA    NA    NA    NA
##  5 T-482  Madres     4x        132   141   246   218   251   356    93   101
##  6 T-482  Madres     4x         NA   155   248    NA   266    NA   105   103
##  7 T-482  Madres     4x         NA   157   250    NA   270    NA    NA   105
##  8 T-482  Madres     4x         NA    NA    NA    NA   272    NA    NA    NA
##  9 T-483  Madres     4x        132   141   244   218   262   356    93   101
## 10 T-483  Madres     4x         NA   146   246    NA   266   358    99   103
## # ℹ 1,094 more rows
## # ℹ 8 more variables: AG30 <int>, AG35 <int>, A2 <int>, A22 <int>, A35 <int>,
## #   A37 <int>, A38 <int>, AG20 <int>
```
…
